endpoint is :
https://reqres.in/api/register

request body is:
{
    "email": "eve.holt@reqres.in",
    "password": "pistol"
}

response header date is :
Tue, 27 Feb 2024 10:11:16 GMT

response body is :
{
    "id": 4,
    "token": "QpwL5tke4Pnpja7X4"
}

