endpoint is :
https://reqres.in/api/register

request body is:
{
    "email": "eve.holt@reqres.in",
    "password": "pistol"
}

response header date is :
Sun, 25 Feb 2024 12:50:57 GMT

response body is :
{
    "id": 4,
    "token": "QpwL5tke4Pnpja7X4"
}

